[{"line":2,"elements":[{"line":4,"name":"","description":"","type":"background","keyword":"Background","steps":[{"name":"url reqresUrl","result":{"duration":108719,"status":"passed"},"match":{"location":"karate","arguments":[]},"keyword":"*","line":5,"doc_string":{"content_type":"","value":"22:01:36.332 << lock released, cached callSingle: AccessTokenGeneration.feature","line":5}},{"name":"\/Users\/SARJERAO\/eclipse-workspace-RESTAssured\/KarateFramework_APIAutomation_Demo\/src\/test\/java\/feature\/AccessTokenGeneration.feature","result":{"duration":0,"status":"passed"},"match":{"location":"karate","arguments":[]},"keyword":"","line":5},{"name":"url 'https:\/\/reqres.in'","result":{"duration":15726035,"status":"passed"},"match":{"location":"karate","arguments":[]},"keyword":"> *","line":5,"doc_string":{"content_type":"","value":"22:01:31.760 >> lock acquired, begin callSingle: AccessTokenGeneration.feature","line":5}},{"name":"path '\/api\/register'","result":{"duration":23864583,"status":"passed"},"match":{"location":"karate","arguments":[]},"keyword":"> Given","line":8},{"name":"form field email = 'eve.holt@reqres.in'","result":{"duration":5839579,"status":"passed"},"match":{"location":"karate","arguments":[]},"keyword":"> And","line":9},{"name":"form field password = 'pistol'","result":{"duration":4682395,"status":"passed"},"match":{"location":"karate","arguments":[]},"keyword":"> And","line":10},{"name":"method POST","result":{"duration":3264098745,"status":"passed"},"match":{"location":"karate","arguments":[]},"keyword":"> When","line":11,"doc_string":{"content_type":"","value":"22:01:34.936 request:\n1 > POST https:\/\/reqres.in\/api\/register\n1 > Accept-Encoding: gzip,deflate\n1 > Connection: Keep-Alive\n1 > Content-Length: 42\n1 > Content-Type: application\/x-www-form-urlencoded; charset=UTF-8\n1 > Host: reqres.in\n1 > User-Agent: Apache-HttpClient\/4.5.11 (Java\/1.8.0_151)\nemail=eve.holt%40reqres.in&password=pistol\n\n22:01:36.135 response time in milliseconds: 1196.93\n1 < 200\n1 < Access-Control-Allow-Origin: *\n1 < CF-Cache-Status: DYNAMIC\n1 < CF-RAY: 5b13ea5ce8c301c8-SIN\n1 < Connection: keep-alive\n1 < Content-Length: 36\n1 < Content-Type: application\/json; charset=utf-8\n1 < Date: Sat, 11 Jul 2020 16:31:34 GMT\n1 < Etag: W\/\"24-4iP0za1geN2he+ohu8F0FhCjLks\"\n1 < Expect-CT: max-age=604800, report-uri=\"https:\/\/report-uri.cloudflare.com\/cdn-cgi\/beacon\/expect-ct\"\n1 < Server: cloudflare\n1 < Set-Cookie: __cfduid=d83cc0ee833ddc1a9140248216528caf11594485093; expires=Mon, 10-Aug-20 16:31:33 GMT; path=\/; domain=.reqres.in; HttpOnly; SameSite=Lax; Secure\n1 < Via: 1.1 vegur\n1 < X-Powered-By: Express\n1 < cf-request-id: 03e050ce12000001c83809d200000001\n{\"id\":4,\"token\":\"QpwL5tke4Pnpja7X4\"}","line":11}},{"name":"status 200","result":{"duration":39195,"status":"passed"},"match":{"location":"karate","arguments":[]},"keyword":"> Then","line":12},{"name":"print response","result":{"duration":29230090,"status":"passed"},"match":{"location":"karate","arguments":[]},"keyword":"> Then","line":13,"doc_string":{"content_type":"","value":"22:01:36.286 [print] {\n  \"id\": 4,\n  \"token\": \"QpwL5tke4Pnpja7X4\"\n}","line":13}},{"name":"def accessToken = response.token","result":{"duration":29867008,"status":"passed"},"match":{"location":"karate","arguments":[]},"keyword":"> *","line":15},{"name":"print 'accessToken ===> ',accessToken","result":{"duration":11654894,"status":"passed"},"match":{"location":"karate","arguments":[]},"keyword":"> Then","line":16,"doc_string":{"content_type":"","value":"22:01:36.330 [print] accessToken ===>  QpwL5tke4Pnpja7X4","line":16}},{"name":"def expectedOutput = read('..\/resources\/userResultPage2.json')","result":{"duration":39047488,"status":"passed"},"match":{"location":"karate","arguments":[]},"keyword":"*","line":6}]},{"line":8,"name":"GET call Authenticaion Test","description":"","id":"get-call-authenticaion-test","type":"scenario","keyword":"Scenario","steps":[{"name":"path '\/api\/users?page=2'","result":{"duration":26460315,"status":"passed"},"match":{"location":"karate","arguments":[]},"keyword":"Given","line":9},{"name":"method GET","result":{"duration":361496295,"status":"passed"},"match":{"location":"karate","arguments":[]},"keyword":"When","line":10,"doc_string":{"content_type":"","value":"22:01:36.455 request:\n1 > GET https:\/\/reqres.in\/api\/users%3Fpage=2\n1 > Accept-Encoding: gzip,deflate\n1 > Connection: Keep-Alive\n1 > Host: reqres.in\n1 > User-Agent: Apache-HttpClient\/4.5.11 (Java\/1.8.0_151)\n\n22:01:36.812 response time in milliseconds: 352.28\n1 < 200\n1 < Access-Control-Allow-Origin: *\n1 < Age: 81\n1 < CF-Cache-Status: HIT\n1 < CF-RAY: 5b13ea639bd8dd1a-SIN\n1 < Cache-Control: max-age=14400\n1 < Connection: keep-alive\n1 < Content-Type: application\/json; charset=utf-8\n1 < Date: Sat, 11 Jul 2020 16:31:34 GMT\n1 < Etag: W\/\"301-ijGNEim\/mAI7LpbQIXyQc2bjt+k\"\n1 < Expect-CT: max-age=604800, report-uri=\"https:\/\/report-uri.cloudflare.com\/cdn-cgi\/beacon\/expect-ct\"\n1 < Server: cloudflare\n1 < Set-Cookie: __cfduid=d497f897a32975d18cf185be50e568fc41594485094; expires=Mon, 10-Aug-20 16:31:34 GMT; path=\/; domain=.reqres.in; HttpOnly; SameSite=Lax; Secure\n1 < Transfer-Encoding: chunked\n1 < Vary: Accept-Encoding\n1 < Via: 1.1 vegur\n1 < X-Powered-By: Express\n1 < cf-request-id: 03e050d23f0000dd1af2354200000001\n{\"page\":1,\"per_page\":6,\"total\":12,\"total_pages\":2,\"data\":[{\"id\":1,\"name\":\"cerulean\",\"year\":2000,\"color\":\"#98B2D1\",\"pantone_value\":\"15-4020\"},{\"id\":2,\"name\":\"fuchsia rose\",\"year\":2001,\"color\":\"#C74375\",\"pantone_value\":\"17-2031\"},{\"id\":3,\"name\":\"true red\",\"year\":2002,\"color\":\"#BF1932\",\"pantone_value\":\"19-1664\"},{\"id\":4,\"name\":\"aqua sky\",\"year\":2003,\"color\":\"#7BC4C4\",\"pantone_value\":\"14-4811\"},{\"id\":5,\"name\":\"tigerlily\",\"year\":2004,\"color\":\"#E2583E\",\"pantone_value\":\"17-1456\"},{\"id\":6,\"name\":\"blue turquoise\",\"year\":2005,\"color\":\"#53B0AE\",\"pantone_value\":\"15-5217\"}],\"ad\":{\"company\":\"StatusCode Weekly\",\"url\":\"http:\/\/statuscode.org\/\",\"text\":\"A weekly newsletter focusing on software development, infrastructure, the server, performance, and the stack end of things.\"}}","line":10}},{"name":"status 200","result":{"duration":21464,"status":"passed"},"match":{"location":"karate","arguments":[]},"keyword":"Then","line":11},{"name":"match response == expectedOutput","result":{"duration":6465298,"status":"passed"},"match":{"location":"karate","arguments":[]},"keyword":"And","line":13},{"name":"print '*** reqresUrl Value *** ',reqresUrl","result":{"duration":10319934,"status":"passed"},"match":{"location":"karate","arguments":[]},"keyword":"And","line":14,"doc_string":{"content_type":"","value":"22:01:36.834 [print] *** reqresUrl Value ***  https:\/\/reqres.in","line":14}},{"name":"print 'authInfo ====> ',authInfo","result":{"duration":10083831,"status":"passed"},"match":{"location":"karate","arguments":[]},"keyword":"And","line":15,"doc_string":{"content_type":"","value":"22:01:36.844 [print] authInfo ====>  {\n  \"__arg\": null,\n  \"responseType\": \"json\",\n  \"responseHeaders\": {\n    \"Date\": [\n      \"Sat, 11 Jul 2020 16:31:34 GMT\"\n    ],\n    \"Content-Type\": [\n      \"application\/json; charset=utf-8\"\n    ],\n    \"Content-Length\": [\n      \"36\"\n    ],\n    \"Connection\": [\n      \"keep-alive\"\n    ],\n    \"Set-Cookie\": [\n      \"__cfduid=d83cc0ee833ddc1a9140248216528caf11594485093; expires=Mon, 10-Aug-20 16:31:33 GMT; path=\/; domain=.reqres.in; HttpOnly; SameSite=Lax; Secure\"\n    ],\n    \"X-Powered-By\": [\n      \"Express\"\n    ],\n    \"Access-Control-Allow-Origin\": [\n      \"*\"\n    ],\n    \"Etag\": [\n      \"W\/\\\"24-4iP0za1geN2he+ohu8F0FhCjLks\\\"\"\n    ],\n    \"Via\": [\n      \"1.1 vegur\"\n    ],\n    \"CF-Cache-Status\": [\n      \"DYNAMIC\"\n    ],\n    \"cf-request-id\": [\n      \"03e050ce12000001c83809d200000001\"\n    ],\n    \"Expect-CT\": [\n      \"max-age=604800, report-uri=\\\"https:\/\/report-uri.cloudflare.com\/cdn-cgi\/beacon\/expect-ct\\\"\"\n    ],\n    \"Server\": [\n      \"cloudflare\"\n    ],\n    \"CF-RAY\": [\n      \"5b13ea5ce8c301c8-SIN\"\n    ]\n  },\n  \"responseTime\": 1197,\n  \"response\": {\n    \"id\": 4,\n    \"token\": \"QpwL5tke4Pnpja7X4\"\n  },\n  \"requestTimeStamp\": 1594485094936,\n  \"responseStatus\": 200,\n  \"accessToken\": \"QpwL5tke4Pnpja7X4\",\n  \"__loop\": -1,\n  \"responseCookies\": {\n    \"__cfduid\": {\n      \"name\": \"__cfduid\",\n      \"value\": \"d83cc0ee833ddc1a9140248216528caf11594485093\",\n      \"domain\": \"reqres.in\",\n      \"path\": \"\/\",\n      \"expires\": \"1597077093000\",\n      \"persistent\": \"true\",\n      \"secure\": \"true\"\n    }\n  }\n}","line":15}},{"name":"print '<=== Access Token ====> ',authInfo.accessToken","result":{"duration":23627081,"status":"passed"},"match":{"location":"karate","arguments":[]},"keyword":"And","line":16,"doc_string":{"content_type":"","value":"22:01:36.868 [print] <=== Access Token ====>  QpwL5tke4Pnpja7X4","line":16}},{"name":"print '<=== Token ====> ',authInfo.response.token","result":{"duration":18316167,"status":"passed"},"match":{"location":"karate","arguments":[]},"keyword":"And","line":17,"doc_string":{"content_type":"","value":"22:01:36.887 [print] <=== Token ====>  QpwL5tke4Pnpja7X4","line":17}},{"name":"print '<=== Response ID ====> ',authInfo.response.id","result":{"duration":30163303,"status":"passed"},"match":{"location":"karate","arguments":[]},"keyword":"And","line":18,"doc_string":{"content_type":"","value":"22:01:36.918 [print] <=== Response ID ====>  4","line":18}},{"name":"print '<=== Connection ====> ',authInfo.responseHeaders.Connection","result":{"duration":25948914,"status":"passed"},"match":{"location":"karate","arguments":[]},"keyword":"And","line":20,"doc_string":{"content_type":"","value":"22:01:36.944 [print] <=== Connection ====>  [\n  \"keep-alive\"\n]","line":20}},{"name":"print '<=== Response Time ====> ',authInfo.responseTime","result":{"duration":28825543,"status":"passed"},"match":{"location":"karate","arguments":[]},"keyword":"And","line":21,"doc_string":{"content_type":"","value":"22:01:36.971 [print] <=== Response Time ====>  1197","line":21}},{"name":"print '<=== Server ====> ',authInfo.responseHeaders.Server","result":{"duration":25213543,"status":"passed"},"match":{"location":"karate","arguments":[]},"keyword":"And","line":22,"doc_string":{"content_type":"","value":"22:01:36.998 [print] <=== Server ====>  [\n  \"cloudflare\"\n]","line":22}}]}],"name":"src\/test\/java\/feature\/configJavaScript.feature","description":"User Details","id":"user-details","keyword":"Feature","uri":"src\/test\/java\/feature\/configJavaScript.feature","tags":[{"name":"@ignore","line":1}]}]